^C:\USERS\NARDS\DOWNLOADS\VIS_TECHNIEKEN_WEEK_2_TEMPLATE\DEBUG\MAIN.OBJ|C:\USERS\NARDS\DOWNLOADS\VIS_TECHNIEKEN_WEEK_2_TEMPLATE\DEBUG\OBJMODEL.OBJ|C:\USERS\NARDS\DOWNLOADS\VIS_TECHNIEKEN_WEEK_2_TEMPLATE\DEBUG\TEXTURE.OBJ
C:\USERS\NARDS\DOWNLOADS\VIS_TECHNIEKEN_WEEK_2_TEMPLATE\DEBUG\VIS_TECHNIEKEN_WEEK_2.EXE
C:\USERS\NARDS\DOWNLOADS\VIS_TECHNIEKEN_WEEK_2_TEMPLATE\DEBUG\VIS_TECHNIEKEN_WEEK_2.ILK
C:\USERS\NARDS\DOWNLOADS\VIS_TECHNIEKEN_WEEK_2_TEMPLATE\DEBUG\VIS_TECHNIEKEN_WEEK_2.PDB
